[
{
    "name": "Common places",
    "locations": [
        "Airport",
        "Swimming pool ",
        "Forest",
        "School",
        "Restaurant",
        "Kaffee",
        "Shopping Centre",
        "Home party",
        "Night club",
        "Beach",
        "Hospital"
    ]
},
{
    "name": "Pro",
    "locations": [
        "Lift",
        "Zoo",
        "Fishing",
        "Russia",
        "Eifel Tower",
        "Wedding",
        "Prison",
        "Mental Hospital",
        "Morning Show",
        "Nowhere",
        "Space",
        "Chocolate fabric",
        "Casino"
    ]
}
{
    "name": "Harry Potter",
    "locations": [
        "Harry Potter:",
        "Hogwarts",
        "Malfoy Manor",
        "Hogsmeade",
        "Diagon Alley",
        "The Beauxbatons Academy",
        "Durmstrang",
        "Ilvermorny School",
        "Platform 9 ¾",
        "Hagrid’s Hut",
    ]
}
]



